-------------------------------------------------------------------------------
Test set: fr.ufc.l3info.oprog.ClosestStationIteratorTest
-------------------------------------------------------------------------------
Tests run: 7, Failures: 0, Errors: 0, Skipped: 0, Time elapsed: 0.007 s - in fr.ufc.l3info.oprog.ClosestStationIteratorTest
