<?xml version="1.0" encoding="UTF-8"?>
<testsuite xmlns:xsi="http://www.w3.org/2001/XMLSchema-instance" xsi:noNamespaceSchemaLocation="https://maven.apache.org/surefire/maven-surefire-plugin/xsd/surefire-test-report.xsd" name="fr.ufc.l3info.oprog.StationWithMocksTest" time="0.773" tests="16" errors="0" skipped="0" failures="0">
  <properties>
    <property name="sun.desktop" value="windows"/>
    <property name="awt.toolkit" value="sun.awt.windows.WToolkit"/>
    <property name="file.encoding.pkg" value="sun.io"/>
    <property name="java.specification.version" value="1.8"/>
    <property name="sun.cpu.isalist" value="amd64"/>
    <property name="sun.jnu.encoding" value="Cp1252"/>
    <property name="java.class.path" value="C:\Users\Skender\Desktop\S5\velol3\target\test-classes;C:\Users\Skender\Desktop\S5\velol3\target\classes;C:\Users\Skender\.m2\repository\junit\junit\4.11\junit-4.11.jar;C:\Users\Skender\.m2\repository\org\hamcrest\hamcrest-core\1.3\hamcrest-core-1.3.jar;C:\Users\Skender\.m2\repository\org\mockito\mockito-core\2.23.4\mockito-core-2.23.4.jar;C:\Users\Skender\.m2\repository\net\bytebuddy\byte-buddy\1.9.3\byte-buddy-1.9.3.jar;C:\Users\Skender\.m2\repository\net\bytebuddy\byte-buddy-agent\1.9.3\byte-buddy-agent-1.9.3.jar;C:\Users\Skender\.m2\repository\org\objenesis\objenesis\2.6\objenesis-2.6.jar;C:\Users\Skender\.m2\repository\org\apache\ant\ant\1.8.1\ant-1.8.1.jar;C:\Users\Skender\.m2\repository\org\apache\ant\ant-launcher\1.8.1\ant-launcher-1.8.1.jar;"/>
    <property name="java.vm.vendor" value="Oracle Corporation"/>
    <property name="sun.arch.data.model" value="64"/>
    <property name="user.variant" value=""/>
    <property name="java.vendor.url" value="http://java.oracle.com/"/>
    <property name="user.timezone" value="Europe/Paris"/>
    <property name="java.vm.specification.version" value="1.8"/>
    <property name="os.name" value="Windows 10"/>
    <property name="user.country" value="FR"/>
    <property name="sun.java.launcher" value="SUN_STANDARD"/>
    <property name="sun.boot.library.path" value="C:\Program Files\Java\jdk1.8.0_181\jre\bin"/>
    <property name="sun.java.command" value="C:\Users\Skender\AppData\Local\Temp\surefire2579344631252367448\surefirebooter1931006533386935072.jar C:\Users\Skender\AppData\Local\Temp\surefire2579344631252367448 2020-12-02T01-00-14_897-jvmRun1 surefire2149756289563863547tmp surefire_02990500063607676714tmp"/>
    <property name="surefire.test.class.path" value="C:\Users\Skender\Desktop\S5\velol3\target\test-classes;C:\Users\Skender\Desktop\S5\velol3\target\classes;C:\Users\Skender\.m2\repository\junit\junit\4.11\junit-4.11.jar;C:\Users\Skender\.m2\repository\org\hamcrest\hamcrest-core\1.3\hamcrest-core-1.3.jar;C:\Users\Skender\.m2\repository\org\mockito\mockito-core\2.23.4\mockito-core-2.23.4.jar;C:\Users\Skender\.m2\repository\net\bytebuddy\byte-buddy\1.9.3\byte-buddy-1.9.3.jar;C:\Users\Skender\.m2\repository\net\bytebuddy\byte-buddy-agent\1.9.3\byte-buddy-agent-1.9.3.jar;C:\Users\Skender\.m2\repository\org\objenesis\objenesis\2.6\objenesis-2.6.jar;C:\Users\Skender\.m2\repository\org\apache\ant\ant\1.8.1\ant-1.8.1.jar;C:\Users\Skender\.m2\repository\org\apache\ant\ant-launcher\1.8.1\ant-launcher-1.8.1.jar;"/>
    <property name="sun.cpu.endian" value="little"/>
    <property name="user.home" value="C:\Users\Skender"/>
    <property name="user.language" value="fr"/>
    <property name="java.specification.vendor" value="Oracle Corporation"/>
    <property name="java.home" value="C:\Program Files\Java\jdk1.8.0_181\jre"/>
    <property name="basedir" value="C:\Users\Skender\Desktop\S5\velol3"/>
    <property name="file.separator" value="\"/>
    <property name="line.separator" value="&#10;"/>
    <property name="java.vm.specification.vendor" value="Oracle Corporation"/>
    <property name="java.specification.name" value="Java Platform API Specification"/>
    <property name="java.awt.graphicsenv" value="sun.awt.Win32GraphicsEnvironment"/>
    <property name="surefire.real.class.path" value="C:\Users\Skender\AppData\Local\Temp\surefire2579344631252367448\surefirebooter1931006533386935072.jar"/>
    <property name="sun.boot.class.path" value="C:\Program Files\Java\jdk1.8.0_181\jre\lib\resources.jar;C:\Program Files\Java\jdk1.8.0_181\jre\lib\rt.jar;C:\Program Files\Java\jdk1.8.0_181\jre\lib\sunrsasign.jar;C:\Program Files\Java\jdk1.8.0_181\jre\lib\jsse.jar;C:\Program Files\Java\jdk1.8.0_181\jre\lib\jce.jar;C:\Program Files\Java\jdk1.8.0_181\jre\lib\charsets.jar;C:\Program Files\Java\jdk1.8.0_181\jre\lib\jfr.jar;C:\Program Files\Java\jdk1.8.0_181\jre\classes"/>
    <property name="user.script" value=""/>
    <property name="sun.management.compiler" value="HotSpot 64-Bit Tiered Compilers"/>
    <property name="java.runtime.version" value="1.8.0_181-b13"/>
    <property name="user.name" value="Skender"/>
    <property name="path.separator" value=";"/>
    <property name="os.version" value="10.0"/>
    <property name="java.endorsed.dirs" value="C:\Program Files\Java\jdk1.8.0_181\jre\lib\endorsed"/>
    <property name="java.runtime.name" value="Java(TM) SE Runtime Environment"/>
    <property name="file.encoding" value="Cp1252"/>
    <property name="java.vm.name" value="Java HotSpot(TM) 64-Bit Server VM"/>
    <property name="localRepository" value="C:\Users\Skender\.m2\repository"/>
    <property name="java.vendor.url.bug" value="http://bugreport.sun.com/bugreport/"/>
    <property name="java.io.tmpdir" value="C:\Users\Skender\AppData\Local\Temp\"/>
    <property name="idea.version" value="2020.2.4"/>
    <property name="java.version" value="1.8.0_181"/>
    <property name="user.dir" value="C:\Users\Skender\Desktop\S5\velol3"/>
    <property name="os.arch" value="amd64"/>
    <property name="java.vm.specification.name" value="Java Virtual Machine Specification"/>
    <property name="java.awt.printerjob" value="sun.awt.windows.WPrinterJob"/>
    <property name="sun.os.patch.level" value=""/>
    <property name="java.library.path" value="C:\Program Files\Java\jdk1.8.0_181\jre\bin;C:\WINDOWS\Sun\Java\bin;C:\WINDOWS\system32;C:\WINDOWS;C:\Program Files\AdoptOpenJDK\jdk-14.0.1.7-hotspot\bin;C:\Program Files (x86)\Common Files\Oracle\Java\javapath;C:\Windows\system32;C:\Windows;C:\Windows\System32\Wbem;C:\Windows\System32\WindowsPowerShell\v1.0\;C:\Windows\System32\OpenSSH\;C:\Users\Skender\AppData\Local\Microsoft\WindowsApps;C:\Program Files\Java\jdk-11.0.1\bin;C:\adb;C:\xampp\mysql\bin;C:\xampp\php;C:\ProgramData\ComposerSetup\bin;C:\Program Files\PuTTY\;C:\MinGW\bin;C:\Program Files (x86)\Yarn\bin\;C:\Program Files\nodejs\;C:\Program Files\Git\cmd;;C:\Program Files\Symfony;%SystemRoot%\system32;%SystemRoot%;%SystemRoot%\System32\Wbem;%SYSTEMROOT%\System32\WindowsPowerShell\v1.0\;%SYSTEMROOT%\System32\OpenSSH\;C:\Users\Skender\AppData\Local\Programs\Python\Python38-32\Scripts\;C:\Users\Skender\AppData\Local\Programs\Python\Python38-32\;C:\Users\Skender\AppData\Roaming\Composer\vendor\bin;C:\Users\Skender\AppData\Local\Yarn\bin;C:\Users\Skender\AppData\Roaming\npm;C:\Users\Skender\AppData\Local\Programs\Microsoft VS Code\bin;C:\Program Files\PostgreSQL\12\bin;C:\Users\Skender\IdeaProjects\apache-maven-3.6.3\bin;."/>
    <property name="java.vm.info" value="mixed mode"/>
    <property name="java.vendor" value="Oracle Corporation"/>
    <property name="java.vm.version" value="25.181-b13"/>
    <property name="java.ext.dirs" value="C:\Program Files\Java\jdk1.8.0_181\jre\lib\ext;C:\WINDOWS\Sun\Java\lib\ext"/>
    <property name="sun.io.unicode.encoding" value="UnicodeLittle"/>
    <property name="java.class.version" value="52.0"/>
  </properties>
  <testcase name="testBorneLibre10" classname="fr.ufc.l3info.oprog.StationWithMocksTest" time="0"/>
  <testcase name="testNom" classname="fr.ufc.l3info.oprog.StationWithMocksTest" time="0"/>
  <testcase name="testArrimerRegRetourner" classname="fr.ufc.l3info.oprog.StationWithMocksTest" time="0.447"/>
  <testcase name="testEmpruntOk" classname="fr.ufc.l3info.oprog.StationWithMocksTest" time="0.036"/>
  <testcase name="testArrimerDistance" classname="fr.ufc.l3info.oprog.StationWithMocksTest" time="0"/>
  <testcase name="testArrimerOk" classname="fr.ufc.l3info.oprog.StationWithMocksTest" time="0"/>
  <testcase name="testArrimerDistanceSame" classname="fr.ufc.l3info.oprog.StationWithMocksTest" time="0"/>
  <testcase name="testEmpruntAbonneBloque" classname="fr.ufc.l3info.oprog.StationWithMocksTest" time="0"/>
  <testcase name="testBorneLibreZero" classname="fr.ufc.l3info.oprog.StationWithMocksTest" time="0"/>
  <testcase name="testBorneLibreNotNull" classname="fr.ufc.l3info.oprog.StationWithMocksTest" time="0"/>
  <testcase name="testEmpruntRegNull" classname="fr.ufc.l3info.oprog.StationWithMocksTest" time="0.001"/>
  <testcase name="testArrimerDistance100" classname="fr.ufc.l3info.oprog.StationWithMocksTest" time="0"/>
  <testcase name="testArrimerVeloNull" classname="fr.ufc.l3info.oprog.StationWithMocksTest" time="0"/>
  <testcase name="testEmpruntEnCoursNull" classname="fr.ufc.l3info.oprog.StationWithMocksTest" time="0.001"/>
  <testcase name="testALaBorneInf" classname="fr.ufc.l3info.oprog.StationWithMocksTest" time="0"/>
  <testcase name="testALaBorneSup" classname="fr.ufc.l3info.oprog.StationWithMocksTest" time="0"/>
</testsuite>