C:\Users\Skender\Desktop\S5\velol3\src\test\java\fr\ufc\l3info\oprog\parser\ParserTest.java
C:\Users\Skender\Desktop\S5\velol3\src\test\java\fr\ufc\l3info\oprog\VeloTestRobin.java
C:\Users\Skender\Desktop\S5\velol3\src\test\java\fr\ufc\l3info\oprog\AbonneTest.java
C:\Users\Skender\Desktop\S5\velol3\src\test\java\fr\ufc\l3info\oprog\JRegistreTest.java
C:\Users\Skender\Desktop\S5\velol3\src\test\java\fr\ufc\l3info\oprog\StationWithMocksTest.java
C:\Users\Skender\Desktop\S5\velol3\src\test\java\fr\ufc\l3info\oprog\VeloTest.java
C:\Users\Skender\Desktop\S5\velol3\src\test\java\fr\ufc\l3info\oprog\IVeloTest.java
C:\Users\Skender\Desktop\S5\velol3\src\test\java\fr\ufc\l3info\oprog\TestsTP7.java
C:\Users\Skender\Desktop\S5\velol3\src\test\java\fr\ufc\l3info\oprog\ClosestStationIteratorTest.java
C:\Users\Skender\Desktop\S5\velol3\src\test\java\fr\ufc\l3info\oprog\parser\ASTCheckerVisitorTest.java
C:\Users\Skender\Desktop\S5\velol3\src\test\java\fr\ufc\l3info\oprog\StationIntegrationTest.java
